[{"review_after":"2020-04-16T12:04:28.95584","review_count":0,"digest":"\\x01bda9e8f07268fe2c2e97833c721102739f7d6ff9401b7f03aaec176e772bbd8b","created_at":"2020-04-15T12:04:28.95584"}, 
 {"review_after":"2020-04-16T12:04:28.95584","review_count":0,"digest":"\\x01c9b1b535fdd91a9855fb7f82348177e5f019329a58c53c47272962dd60f71fc9","created_at":"2020-04-15T12:04:28.95584"}, 
 {"review_after":"2020-04-16T12:04:28.95584","review_count":0,"digest":"\\x015042ef227578477784ce48d26f549739d919223ca9a511efb2be091cd6e7c957","created_at":"2020-04-15T12:04:28.95584"}, 
 {"review_after":"2020-04-16T12:04:28.95584","review_count":0,"digest":"\\x01ba44d9d3f13a26d49ec4e53f8b69092d61c7f7fd9d4abd07ae086d96958fdb13","created_at":"2020-04-15T12:04:28.95584"}, 
 {"review_after":"2020-04-16T12:04:28.95584","review_count":0,"digest":"\\x0104f2d9b76105721fac9b03445f164e585457002aa69a36f84bda78e848e48ebe","created_at":"2020-04-15T12:04:28.95584"}]